<?xml version="1.0" encoding="UTF-8" standalone="no"?>
<!-- Created with Inkscape (http://www.inkscape.org/) -->

<svg
   xmlns:dc="http://purl.org/dc/elements/1.1/"
   xmlns:cc="http://creativecommons.org/ns#"
   xmlns:rdf="http://www.w3.org/1999/02/22-rdf-syntax-ns#"
   xmlns:svg="http://www.w3.org/2000/svg"
   xmlns="http://www.w3.org/2000/svg"
   xmlns:sodipodi="http://sodipodi.sourceforge.net/DTD/sodipodi-0.dtd"
   xmlns:inkscape="http://www.inkscape.org/namespaces/inkscape"
   width="176.29799"
   height="50.000011"
   viewBox="0 0 46.645508 13.22917"
   version="1.1"
   id="svg20630"
   inkscape:version="0.92.5 (2060ec1f9f, 2020-04-08)"
   sodipodi:docname="openResultat-banner.svg">
  <defs
     id="defs20624" />
  <sodipodi:namedview
     id="base"
     pagecolor="#ffffff"
     bordercolor="#666666"
     borderopacity="1.0"
     inkscape:pageopacity="0.0"
     inkscape:pageshadow="2"
     inkscape:zoom="4.0758077"
     inkscape:cx="31.570637"
     inkscape:cy="-25.224182"
     inkscape:document-units="mm"
     inkscape:current-layer="layer1"
     showgrid="false"
     units="px"
     inkscape:pagecheckerboard="false"
     showborder="true"
     inkscape:showpageshadow="false"
     showguides="true"
     inkscape:guide-bbox="true"
     inkscape:window-width="1880"
     inkscape:window-height="1016"
     inkscape:window-x="40"
     inkscape:window-y="27"
     inkscape:window-maximized="1"
     fit-margin-top="0"
     fit-margin-left="0"
     fit-margin-right="0"
     fit-margin-bottom="0" />
  <metadata
     id="metadata20627">
    <rdf:RDF>
      <cc:Work
         rdf:about="">
        <dc:format>image/svg+xml</dc:format>
        <dc:type
           rdf:resource="http://purl.org/dc/dcmitype/StillImage" />
        <dc:title></dc:title>
      </cc:Work>
    </rdf:RDF>
  </metadata>
  <g
     inkscape:groupmode="layer"
     id="layer3"
     inkscape:label="application name"
     style="display:inline">
    <g
       aria-label="openRésultat"
       transform="matrix(0.07873433,0,0,0.07873433,13.702917,-7.7955779)"
       style="font-style:normal;font-variant:normal;font-weight:normal;font-stretch:normal;line-height:0.01%;font-family:'Caviar Dreams';-inkscape-font-specification:'Caviar Dreams, Normal';text-align:justify;writing-mode:lr-tb;text-anchor:start;display:inline;opacity:1;fill:#ffffff;fill-opacity:1;stroke:none;stroke-width:50;stroke-linejoin:miter;stroke-miterlimit:4;stroke-dasharray:none;stroke-dashoffset:0;stroke-opacity:1"
       id="flowRoot20578">
      <path
         d="m 19.592652,200.78717 q 7.981085,0 13.581847,5.63577 5.635767,5.63577 5.635767,13.61685 0,7.94608 -5.635767,13.58185 -5.600762,5.63577 -13.581847,5.63577 -7.946081,0 -13.5818476,-5.63577 -5.63576653,-5.63577 -5.63576653,-13.58185 0,-7.98108 5.63576653,-13.61685 5.6357666,-5.63577 13.5818476,-5.63577 z m 0,3.36046 q -6.580895,0 -11.2365286,4.65563 -4.6556332,4.65564 -4.6556332,11.23653 0,6.5809 4.6556332,11.23653 4.6556336,4.62063 11.2365286,4.62063 6.580895,0 11.236528,-4.62063 4.655633,-4.65563 4.655633,-11.23653 0,-6.58089 -4.655633,-11.23653 -4.655633,-4.65563 -11.236528,-4.65563 z"
         style="font-style:normal;font-variant:normal;font-weight:normal;font-stretch:normal;font-size:71.68975067px;line-height:125%;font-family:'Caviar Dreams';-inkscape-font-specification:'Caviar Dreams, Normal';text-align:justify;writing-mode:lr-tb;text-anchor:start;fill:#ffffff;fill-opacity:1"
         id="path18"
         inkscape:connector-curvature="0" />
      <path
         d="m 47.211408,203.9026 h 3.150428 v 4.83065 q 0.875119,-1.19016 1.995271,-2.31031 5.635767,-5.60076 13.581848,-5.60076 7.981085,0 13.581847,5.63576 5.635767,5.60077 5.635767,13.58185 0,7.94608 -5.635767,13.58185 -5.600762,5.63577 -13.581847,5.63577 -7.946081,0 -13.581848,-5.63577 -1.120152,-1.12015 -1.995271,-2.31031 v 20.09273 h -3.150428 z m 3.150428,12.84674 v 6.5809 q 0.910124,4.51561 4.34059,7.94608 4.655634,4.65563 11.236529,4.65563 6.580895,0 11.236528,-4.65563 4.655633,-4.65563 4.655633,-11.23653 0,-6.58089 -4.655633,-11.23653 -4.655633,-4.65563 -11.236528,-4.65563 -6.580895,0 -11.236529,4.65563 -3.430466,3.43047 -4.34059,7.94608 z"
         style="font-style:normal;font-variant:normal;font-weight:normal;font-stretch:normal;font-size:71.68975067px;line-height:125%;font-family:'Caviar Dreams';-inkscape-font-specification:'Caviar Dreams, Normal';text-align:justify;writing-mode:lr-tb;text-anchor:start;fill:#ffffff;fill-opacity:1"
         id="path20"
         inkscape:connector-curvature="0" />
      <path
         d="m 100.45365,231.8364 q 4.4456,4.06055 10.57144,4.06055 6.58089,0 11.23652,-4.65563 0.59509,-0.59509 1.12016,-1.22517 l 3.32545,1.19016 q -0.91013,1.26017 -2.06528,2.41533 -5.63577,5.63577 -13.61685,5.63577 -7.94608,0 -13.581852,-5.63577 -5.635766,-5.63577 -5.635766,-13.61685 0,-7.94608 5.635766,-13.58185 5.635772,-5.63577 13.581852,-5.63577 6.82592,0 11.93662,4.09556 0.84011,0.7001 1.68023,1.54021 0.31504,0.31504 0.59508,0.63009 l -2.38032,2.38032 z m 20.09273,-24.53834 q -4.09556,-3.15043 -9.52129,-3.15043 -6.54589,0 -11.201528,4.65563 -4.655633,4.62063 -4.655633,11.20153 0,5.42574 3.150429,9.52129 z"
         style="font-style:normal;font-variant:normal;font-weight:normal;font-stretch:normal;font-size:71.68975067px;line-height:125%;font-family:'Caviar Dreams';-inkscape-font-specification:'Caviar Dreams, Normal';text-align:justify;writing-mode:lr-tb;text-anchor:start;fill:#ffffff;fill-opacity:1"
         id="path22"
         inkscape:connector-curvature="0" />
      <path
         d="m 138.25879,211.56864 v 26.70863 h -3.15043 V 203.9026 h 3.15043 v 2.2053 q 4.30559,-4.27058 10.01137,-4.27058 6.09082,0 9.90634,3.81552 3.81552,3.81551 3.92054,9.6263 v 22.99813 h -3.15043 v -22.71809 q 0,-4.37559 -3.18544,-7.45601 -3.15042,-3.11542 -7.49101,-3.11542 -4.3406,0 -7.49102,3.04541 -1.71524,1.71523 -2.52035,3.53548 z"
         style="font-style:normal;font-variant:normal;font-weight:normal;font-stretch:normal;font-size:71.68975067px;line-height:125%;font-family:'Caviar Dreams';-inkscape-font-specification:'Caviar Dreams, Normal';text-align:justify;writing-mode:lr-tb;text-anchor:start;fill:#ffffff;fill-opacity:1"
         id="path24"
         inkscape:connector-curvature="0" />
      <path
         d="m 175.74889,185.45509 v 30.20911 h 9.5213 q 6.23084,0 10.64144,-4.4106 4.44561,-4.44561 4.44561,-10.71146 0,-6.26585 -4.44561,-10.67645 -4.4106,-4.4106 -10.64144,-4.4106 z m 10.46642,33.35954 q -0.45506,0.035 -0.94512,0.035 h -9.5213 v 19.42764 h -3.15043 v -56.00761 h 14.702 q 6.40587,0.87511 10.88648,5.35572 5.35573,5.35573 5.35573,12.91676 0,7.59603 -5.35573,12.95176 -3.7105,3.71051 -8.50615,4.86566 l 12.91675,19.91771 h -3.88553 z"
         style="font-style:normal;font-variant:normal;font-weight:normal;font-stretch:normal;font-size:71.68975067px;line-height:125%;font-family:'Caviar Dreams';-inkscape-font-specification:'Caviar Dreams, Normal';text-align:justify;writing-mode:lr-tb;text-anchor:start;fill:#ffffff;fill-opacity:1"
         id="path26"
         inkscape:connector-curvature="0" />
      <path
         d="m 217.26453,231.8364 q 4.44561,4.06055 10.57144,4.06055 6.58089,0 11.23653,-4.65563 0.59508,-0.59509 1.12015,-1.22517 l 3.32545,1.19016 q -0.91012,1.26017 -2.06528,2.41533 -5.63577,5.63577 -13.61685,5.63577 -7.94608,0 -13.58185,-5.63577 -5.63577,-5.63577 -5.63577,-13.61685 0,-7.94608 5.63577,-13.58185 5.63577,-5.63577 13.58185,-5.63577 6.82593,0 11.93662,4.09556 0.84012,0.7001 1.68023,1.54021 0.31504,0.31504 0.59508,0.63009 l -2.38032,2.38032 z m 20.09273,-24.53834 q -4.09555,-3.15043 -9.52129,-3.15043 -6.54589,0 -11.20153,4.65563 -4.65563,4.62063 -4.65563,11.20153 0,5.42574 3.15043,9.52129 z m -3.60549,-17.57239 -8.57616,6.54589 h -2.9404 l 5.70577,-6.54589 z"
         style="font-style:normal;font-variant:normal;font-weight:normal;font-stretch:normal;font-size:71.68975067px;line-height:125%;font-family:'Caviar Dreams';-inkscape-font-specification:'Caviar Dreams, Normal';text-align:justify;writing-mode:lr-tb;text-anchor:start;fill:#ffffff;fill-opacity:1"
         id="path28"
         inkscape:connector-curvature="0" />
      <path
         d="m 261.37053,220.59987 q -4.02554,-2.1703 -5.56575,-3.71051 -2.41533,-2.41532 -2.41533,-5.81079 0,-3.43046 2.41533,-5.84579 2.41532,-2.45033 5.81079,-2.45033 3.43046,0 5.67077,2.2403 2.17029,2.2053 2.17029,5.00568 v 0.17502 l -2.73037,1.08515 q -0.35005,-2.66036 -1.68023,-3.99054 -1.29517,-1.33018 -3.43046,-1.33018 -2.10029,0 -3.60549,1.5052 -1.50521,1.4702 -1.50521,3.60549 0,2.10029 1.50521,3.60549 0.87511,0.87512 3.7105,2.66037 4.48061,2.45033 6.37087,4.34059 2.9754,3.01041 2.9754,7.17597 0,4.27058 -2.9754,7.28099 -2.97541,2.97541 -7.21098,2.97541 -4.23558,0 -7.21098,-2.97541 -2.97541,-3.01041 -2.97541,-6.58089 l 3.11542,-0.80511 q 0,3.08042 2.06529,5.1457 2.10028,2.06528 5.00568,2.06528 2.90539,0 4.97067,-2.06528 2.10029,-2.06528 2.10029,-5.04069 0,-2.90539 -2.06528,-4.97067 -1.12016,-1.12016 -4.51562,-3.29045 z"
         style="font-style:normal;font-variant:normal;font-weight:normal;font-stretch:normal;font-size:71.68975067px;line-height:125%;font-family:'Caviar Dreams';-inkscape-font-specification:'Caviar Dreams, Normal';text-align:justify;writing-mode:lr-tb;text-anchor:start;fill:#ffffff;fill-opacity:1"
         id="path30"
         inkscape:connector-curvature="0" />
      <path
         d="m 294.17001,238.76734 q -6.44087,0 -10.25639,-3.81552 -3.81552,-3.81552 -3.92054,-9.62631 V 203.9026 h 3.15043 v 21.14287 q 0,4.3756 3.18544,7.45602 3.15043,3.11542 7.80606,3.11542 4.34059,0 7.49102,-3.08042 3.18543,-3.11542 3.18543,-7.49102 V 203.9026 h 3.15043 v 21.42291 q -0.10502,5.81079 -3.92053,9.62631 -3.81552,3.81552 -9.87135,3.81552 z"
         style="font-style:normal;font-variant:normal;font-weight:normal;font-stretch:normal;font-size:71.68975067px;line-height:125%;font-family:'Caviar Dreams';-inkscape-font-specification:'Caviar Dreams, Normal';text-align:justify;writing-mode:lr-tb;text-anchor:start;fill:#ffffff;fill-opacity:1"
         id="path32"
         inkscape:connector-curvature="0" />
      <path
         d="m 321.61373,182.26966 v 56.00761 h -3.15043 v -56.00761 z"
         style="font-style:normal;font-variant:normal;font-weight:normal;font-stretch:normal;font-size:71.68975067px;line-height:125%;font-family:'Caviar Dreams';-inkscape-font-specification:'Caviar Dreams, Normal';text-align:justify;writing-mode:lr-tb;text-anchor:start;fill:#ffffff;fill-opacity:1"
         id="path34"
         inkscape:connector-curvature="0" />
      <path
         d="m 337.01582,203.9026 v -14.63199 h 3.15043 v 14.63199 h 7.00095 v 3.15043 h -7.00095 v 31.22424 h -3.15043 v -31.22424 h -7.00095 v -3.15043 z"
         style="font-style:normal;font-variant:normal;font-weight:normal;font-stretch:normal;font-size:71.68975067px;line-height:125%;font-family:'Caviar Dreams';-inkscape-font-specification:'Caviar Dreams, Normal';text-align:justify;writing-mode:lr-tb;text-anchor:start;fill:#ffffff;fill-opacity:1"
         id="path36"
         inkscape:connector-curvature="0" />
      <path
         d="m 392.67339,238.27727 h -3.15043 v -7.00095 q -0.91012,1.22517 -1.99527,2.34532 -5.63577,5.63577 -13.61685,5.63577 -7.94608,0 -13.58185,-5.63577 -5.63577,-5.63577 -5.63577,-13.58185 0,-7.98108 5.63577,-13.61685 5.63577,-5.63577 13.58185,-5.63577 7.98108,0 13.61685,5.63577 1.08515,1.12015 1.99527,2.34532 v -4.86566 h 3.15043 z m -3.15043,-15.12205 v -6.23085 q -0.87512,-4.62063 -4.3756,-8.12111 -4.65563,-4.65563 -11.23652,-4.65563 -6.5809,0 -11.23653,4.65563 -4.65564,4.65564 -4.65564,11.23653 0,6.5809 4.65564,11.23653 4.65563,4.62063 11.23653,4.62063 6.58089,0 11.23652,-4.65563 3.50048,-3.50048 4.3756,-8.0861 z"
         style="font-style:normal;font-variant:normal;font-weight:normal;font-stretch:normal;font-size:71.68975067px;line-height:125%;font-family:'Caviar Dreams';-inkscape-font-specification:'Caviar Dreams, Normal';text-align:justify;writing-mode:lr-tb;text-anchor:start;fill:#ffffff;fill-opacity:1"
         id="path38"
         inkscape:connector-curvature="0" />
      <path
         d="m 408.2505,203.9026 v -14.63199 h 3.15043 v 14.63199 h 7.00095 v 3.15043 h -7.00095 v 31.22424 h -3.15043 v -31.22424 h -7.00095 v -3.15043 z"
         style="font-style:normal;font-variant:normal;font-weight:normal;font-stretch:normal;font-size:71.68975067px;line-height:125%;font-family:'Caviar Dreams';-inkscape-font-specification:'Caviar Dreams, Normal';text-align:justify;writing-mode:lr-tb;text-anchor:start;fill:#ffffff;fill-opacity:1"
         id="path40"
         inkscape:connector-curvature="0" />
    </g>
    <flowRoot
       xml:space="preserve"
       id="flowRoot21228"
       style="font-style:normal;font-variant:normal;font-weight:bold;font-stretch:normal;font-size:40px;line-height:125%;font-family:sans-serif;-inkscape-font-specification:'sans-serif Bold';letter-spacing:0px;word-spacing:0px;fill:#000000;fill-opacity:1;stroke:none;stroke-width:1px;stroke-linecap:butt;stroke-linejoin:miter;stroke-opacity:1"
       transform="scale(0.26458333)"><flowRegion
         id="flowRegion21230"><rect
           id="rect21232"
           width="217.87093"
           height="106.23661"
           x="-47.597927"
           y="-32.437649" /></flowRegion><flowPara
         id="flowPara21234" /></flowRoot>  </g>
  <g
     inkscape:label="logo"
     inkscape:groupmode="layer"
     id="layer1"
     transform="translate(0,-283.7708)"
     style="display:inline">
    <path
       inkscape:export-ydpi="95.999977"
       inkscape:export-xdpi="95.999977"
       sodipodi:nodetypes="cccc"
       inkscape:connector-curvature="0"
       id="use20568"
       d="m 6.322273,290.99474 c -1.15927,2.00181 -2.3187171,4.00352 -3.4781519,6.00523 2.318839,0 4.6376759,0 6.9565149,0 -1.1594549,-2.00174 -2.3189049,-4.00349 -3.478363,-6.00523 z"
       style="display:inline;opacity:1;fill:#619af3;fill-opacity:1;stroke:none;stroke-width:1.16445386;stroke-linejoin:miter;stroke-miterlimit:4;stroke-dasharray:none;stroke-dashoffset:0;stroke-opacity:1" />
    <path
       inkscape:export-ydpi="95.999977"
       inkscape:export-xdpi="95.999977"
       inkscape:connector-curvature="0"
       id="path20570"
       d="M 6.2986412,283.7708 C 2.834908,283.7708 0,286.59455 0,290.04466 c 0,1.89949 0.860377,3.60803 2.210855,4.76116 l 0.9385751,-1.61919 0.3492119,-0.6025 c -0.6094751,-0.66732 -0.979104,-1.55667 -0.979104,-2.53947 0,-2.09384 1.6769841,-3.76423 3.7791032,-3.76423 2.1021109,0 3.7793148,1.67039 3.7793148,3.76423 0,0.9828 -0.3695749,1.87215 -0.979105,2.53947 l 0.3492111,0.6025 0.9385749,1.61897 c 1.350444,-1.15312 2.210855,-2.86152 2.210855,-4.76094 0,-3.45011 -2.8351179,-6.27386 -6.2988508,-6.27386 z"
       style="color:#ffffff;font-style:normal;font-variant:normal;font-weight:normal;font-stretch:normal;font-size:medium;line-height:normal;font-family:sans-serif;text-indent:0;text-align:start;text-decoration:none;text-decoration-line:none;text-decoration-style:solid;text-decoration-color:#000000;letter-spacing:normal;word-spacing:normal;text-transform:none;writing-mode:lr-tb;direction:ltr;baseline-shift:baseline;text-anchor:start;white-space:normal;clip-rule:nonzero;display:inline;overflow:visible;visibility:visible;opacity:1;isolation:auto;mix-blend-mode:normal;color-interpolation:sRGB;color-interpolation-filters:linearRGB;solid-color:#ffffff;solid-opacity:1;fill:#ffffff;fill-opacity:1;fill-rule:nonzero;stroke:none;stroke-width:1.7973007;stroke-linecap:butt;stroke-linejoin:miter;stroke-miterlimit:4;stroke-dasharray:none;stroke-dashoffset:0;stroke-opacity:1;color-rendering:auto;image-rendering:auto;shape-rendering:auto;text-rendering:auto;enable-background:accumulate" />
  </g>
</svg>
